<?xml version="1.0" encoding="utf-8"?>
<!-- Generator: Adobe Illustrator 22.1.0, SVG Export Plug-In . SVG Version: 6.00 Build 0)  -->
<svg version="1.1" id="Layer_1" xmlns="http://www.w3.org/2000/svg" xmlns:xlink="http://www.w3.org/1999/xlink" x="0px" y="0px"
	 viewBox="0 0 54.6 41" style="enable-background:new 0 0 54.6 41;" xml:space="preserve">
<style type="text/css">
	.st0{fill:url(#SVGID_1_);}
	.st1{fill:url(#SVGID_2_);}
</style>
<linearGradient id="SVGID_1_" gradientUnits="userSpaceOnUse" x1="0" y1="20.5" x2="54.6" y2="20.5">
	<stop  offset="0" style="stop-color:#6191FF"/>
	<stop  offset="0.9987" style="stop-color:#A26FFF"/>
</linearGradient>
<path class="st0" d="M51.8,4.6V2.3h-9.1v2.3h-6.3V0H18.2v4.6H0V41h54.6V4.6H51.8z M27.3,38.1c-8.5,0-15.4-6.9-15.4-15.4
	c0-5.9,3.4-11.1,8.3-13.7c2.1-1.1,4.5-1.7,7.1-1.7c2.6,0,5,0.6,7.1,1.7c4.9,2.6,8.3,7.7,8.3,13.7C42.7,31.3,35.8,38.1,27.3,38.1z"/>
<linearGradient id="SVGID_2_" gradientUnits="userSpaceOnUse" x1="16.2" y1="22.8" x2="38.4" y2="22.8">
	<stop  offset="0" style="stop-color:#6191FF"/>
	<stop  offset="0.9987" style="stop-color:#A26FFF"/>
</linearGradient>
<circle class="st1" cx="27.3" cy="22.8" r="11.1"/>
</svg>
