<?xml version="1.0" encoding="utf-8"?>
<!-- Generator: Adobe Illustrator 22.1.0, SVG Export Plug-In . SVG Version: 6.00 Build 0)  -->
<svg version="1.1" id="Layer_1" xmlns="http://www.w3.org/2000/svg" xmlns:xlink="http://www.w3.org/1999/xlink" x="0px" y="0px"
	 viewBox="0 0 101.5 122.9" style="enable-background:new 0 0 101.5 122.9;" xml:space="preserve">
<style type="text/css">
	.st0{fill:#FFFFFF;}
	.st1{fill:#BFC3CA;}
</style>
<circle class="st0" cx="50.4" cy="50.2" r="33"/>
<g>
	<path class="st1" d="M86.6,14.9C66.8-5,34.7-5,14.9,14.9C-4.9,34.6-5,66.6,14.7,86.5l35.7,35.7l0.7,0.7l35.5-36.2
		C106.5,66.8,106.5,34.7,86.6,14.9z M68.4,68.8c-10,10-26.1,10-36.1,0s-10-26.1,0-36.1s26.1-10,36.1,0S78.4,58.8,68.4,68.8z"/>
</g>
</svg>
